{"frames": [
	{
		"num": "0",
		"name": "vide",
		"frame": {"x":0,"y":0,"w":26,"h":26}
	},

	{
		"num": "1",
		"name": "dalleT",
		"frame": {"x":52,"y":26,"w":26,"h":26}
	},

	{
		"num": "2",
		"name": "angleD",
		"frame": {"x":26,"y":26,"w":26,"h":26}
	},

	{
		"num": "3",
		"name": "angleG",
		"frame": {"x":208,"y":26,"w":26,"h":26}
	},	

	{
		"num": "4",
		"name": "coinHD",
		"frame": {"x":208,"y":0,"w":26,"h":26}
	},

	{
		"num": "5",
		"name": "coinHG",
		"frame": {"x":0,"y":26,"w":26,"h":26}
	},

	{
		"num": "6",
		"name": "murG",
		"frame": {"x":0,"y":52,"w":26,"h":26}
	},

	{
		"num": "7",
		"name": "murD",
		"frame": {"x":234,"y":52,"w":26,"h":26}
	},

	{
		"num": "8",
		"name": "murH",
		"frame": {"x":52,"y":0,"w":26,"h":26}
	},

	{
		"num": "9",
		"name": "murB",
		"frame": {"x":130,"y":156,"w":26,"h":26}
	},

	{
		"num": "10",
		"name": "coinBGMur",
		"frame": {"x":0,"y":78,"w":26,"h":26}
 	},

 	{
		"num": "11",
		"name": "coinBDMur",
		"frame": {"x":234,"y":78,"w":26,"h":26}
 	},
 	
	{
		"num": "12",
		"name": "angleBG",
		"frame": {"x":52,"y":104,"w":26,"h":26}
	},

	{
		"num": "13",
		"name": "angleBGVide",
		"frame": {"x":52,"y":104,"w":26,"h":26}
	},

	{
		"num": "14",
		"name": "angleBGDT",
		"frame": {"x":130,"y":78,"w":26,"h":26}
	},

	{
		"num": "15",
		"name": "dalle",
		"frame": {"x":78,"y":26,"w":26,"h":26}
	},

	{
		"num": "16",
		"name": "sortie",
		"frame": {"x":104,"y":0,"w":26,"h":26}
	},

	{
		"num": "17",
		"name": "entree",
		"frame": {"x":104,"y":156,"w":26,"h":26}
	},

	{
		"num": "18",
		"name": "angleBD",
		"frame": {"x":208,"y":78,"w":26,"h":26}
	},

	{
		"num": "19",
		"name": "angleBDDT",
		"frame": {"x":156,"y":130,"w":26,"h":26}
	},

	{
		"num": "20",
		"name": "angleBDVide",
		"frame": {"x":182,"y":104,"w":26,"h":26}
	},

	{
		"num": "21",
		"name": "torche1",
		"frame": {"x":130,"y":0,"w":26,"h":26}
	},

	{
		"num": "22",
		"name": "torche2",
		"frame": {"x":156,"y":0,"w":26,"h":26}
	},

	{
		"num": "23",
		"name": "fissure1",
		"frame": {"x":78,"y":52,"w":26,"h":26}
	},

	{
		"num": "24",
		"name": "fissure2",
		"frame": {"x":104,"y":52,"w":26,"h":26}
	},

	{
		"num": "25",
		"name": "fissure3",
		"frame": {"x":130,"y":52,"w":26,"h":26}
	},

	{
		"num": "26",
		"name": "fissure4",
		"frame": {"x":156,"y":52,"w":26,"h":26}
	},

	{
		"num": "27",
		"name": "fissure5",
		"frame": {"x":182,"y":52,"w":26,"h":26}
	},

	{
		"num": "28",
		"name": "fissure6",
		"frame": {"x":208,"y":52,"w":26,"h":26}
	},

	{
		"num": "29",
		"name": "fissure7",
		"frame": {"x":78,"y":78,"w":26,"h":26}
	},

	{
		"num": "30",
		"name": "fissure8",
		"frame": {"x":104,"y":78,"w":26,"h":26}
	},

	{
		"num": "31",
		"name": "fissure9",
		"frame": {"x":130,"y":78,"w":26,"h":26}
	},

	{
		"num": "32",
		"name": "fissure10",
		"frame": {"x":78,"y":104,"w":26,"h":26}
	},

	{
		"num": "33",
		"name": "fissure11",
		"frame": {"x":104,"y":104,"w":26,"h":26}
	},

	{
		"num": "34",
		"name": "fissure12",
		"frame": {"x":130,"y":104,"w":26,"h":26}
	},

	{
		"num": "35",
		"name": "DTfissure1",
		"frame": {"x":104,"y":26,"w":26,"h":26}
	},

	{
		"num": "36",
		"name": "DTfissure2",
		"frame": {"x":130,"y":26,"w":26,"h":26}
	},

	{
		"num": "37",
		"name": "DTfissure3",
		"frame": {"x":156,"y":26,"w":26,"h":26}
	},
	{
		"num": "38",
		"name": "dalleC",
		"frame": {"x":26,"y":52,"w":26,"h":26}
	},

	{
		"num": "39",
		"name": "b1",
		"frame": {"x":104,"y":130,"w":26,"h":26}
	},

	{
		"num": "40",
		"name": "picR",
		"frame": {"x":130,"y":130,"w":26,"h":26}
	},

	{
		"num": "41",
		"name": "b2",
		"frame": {"x":156,"y":78,"w":26,"h":26}
	},

	{
		"num": "42",
		"name": "pic",
		"frame": {"x":156,"y":104,"w":26,"h":26}
	}

]}
